Matching Workflows
…
# Match 2 controls per treated unit
result_2to1 <- match_couples(
  left = left_data,
  right = right_data,
  vars = c("age", "income"),
  auto_scale = TRUE,
  ratio = 2,
  method = "hungarian"
)
#> Auto-selected scaling method: standardize

result_2to1$pairs
#> # A tibble: 150 × 5
#>    left_id right_id distance .age_diff .income_diff
#>    <chr>   <chr>       <dbl>     <dbl>        <dbl>
#>  1 3       52        1.07     -11.6          5127. 
#>  2 3       5         0.270     -2.96         1144. 
#>  3 4       100       1.05     -10.8          7159. 
#>  4 4       81        0.121      0.567        1820. 
#>  5 5       3         0.690     -6.78         5721. 
#>  6 5       71        0.469     -3.30         6065. 
#>  7 6       30        1.08     -12.3          1426. 
#>  8 6       25        0.231     -2.50         1139. 
#>  9 7       143       0.735     -5.12         9559. 
#> 10 7       94        0.00653    0.0728        -20.9
#> # ℹ 140 more rows
…
ps_result
#> Matching Result
#> ===============
#> 
#> Method: lap 
#> Pairs matched: 99 
#> Unmatched (left): 1 
#> Unmatched (right): 51 
#> Total distance: 9.8133 
#> 
#> Matched pairs:
#> # A tibble: 99 × 4
#>    left_id right_id distance .logit_ps_diff
#>    <chr>   <chr>       <dbl>          <dbl>
#>  1 1       139       0.285          0.285  
#>  2 2       117       0.123          0.123  
#>  3 3       100       0.0141         0.0141 
#>  4 4       103       0.246          0.246  
#>  5 5       133       0.221          0.221  
#>  6 6       148       0.00931        0.00931
#>  7 7       111       0.102          0.102  
#>  8 8       124       0.351          0.351  
#>  9 9       128       0.0692         0.0692 
#> 10 10      110       0.0131         0.0131 
#> # ℹ 89 more rows
…
